<svg width="121" height="30" viewBox="0 0 121 30" fill="none" xmlns="http://www.w3.org/2000/svg">
<g clip-path="url(#clip0_109_4751)">
<path d="M70.3719 22.2043C70.3719 22.5398 70.0977 22.8139 69.7614 22.8139H68.1147C66.8836 22.8051 65.8887 21.8058 65.8887 20.5729V13.8193C65.8887 11.6964 64.9455 10.6056 63.2643 10.6056C61.5843 10.6056 60.5516 11.6964 60.5516 13.8193V20.5729C60.5516 21.8112 59.5483 22.8139 58.3104 22.8139C57.0718 22.8139 56.0694 21.8112 56.0694 20.5729V13.8193C56.0694 11.6964 55.1264 10.6056 53.445 10.6056C51.7638 10.6056 50.7322 11.6964 50.7322 13.8193V20.5729C50.7322 21.8058 49.7364 22.8051 48.5056 22.8139H46.86C46.5235 22.8139 46.25 22.5397 46.25 22.2043V7.2679C46.25 6.93262 46.5235 6.6589 46.86 6.6589L48.4908 6.65458C49.7289 6.65458 50.7324 7.65694 50.7324 8.89498V9.07318C51.7638 7.74598 53.121 6.53638 55.3916 6.53638C57.4556 6.53638 59.0192 7.44994 59.8448 9.04246C61.231 7.42114 62.881 6.53638 65.0336 6.53638C68.3667 6.53638 70.3722 8.54098 70.3722 12.3456V22.2048L70.3719 22.2043Z" fill="#171321"/>
<path d="M71.9307 26.8662C71.9307 28.1045 72.9334 29.1072 74.1726 29.1072C75.4105 29.1072 76.4135 28.1045 76.4135 26.8662V20.5734C77.4749 21.8418 78.9491 22.9321 81.3371 22.9321C85.0823 22.9321 88.5325 20.0425 88.5325 14.7637V14.7046C88.5325 9.42635 85.0237 6.53735 81.3371 6.53735C79.008 6.53735 77.5043 7.62815 76.4135 9.10259V8.89547C76.4135 7.65743 75.4105 6.65507 74.1726 6.65507C74.1448 6.65507 74.119 6.65723 74.0926 6.65939H72.5412C72.2051 6.65939 71.9307 6.93323 71.9307 7.26839V26.8668M84.0507 14.7636C84.0507 17.4168 82.2813 19.128 80.1879 19.128C78.0945 19.128 76.3545 17.3879 76.3545 14.7636V14.7044C76.3545 12.0803 78.0946 10.34 80.1879 10.34C82.2813 10.34 84.0507 12.0802 84.0507 14.7044V14.7636Z" fill="#171321"/>
<path d="M101.124 8.2327L99.8516 7.60942L99.85 7.61218C98.2984 6.90814 96.5848 6.52978 94.9431 6.58726C91.7605 6.7003 89.2297 8.58826 89.3432 11.8013L89.3451 11.8604C89.4529 14.9251 91.9947 15.869 94.2279 16.4396C95.9852 16.9087 97.5295 17.1786 97.5632 18.1511L97.5657 18.2102C97.5912 18.9174 97.0168 19.4096 95.7209 19.4551C94.4537 19.5005 92.9333 19.0812 91.3973 18.1915C91.1573 18.0524 90.8288 17.975 90.5055 17.9867C89.8709 18.0084 89.3439 18.3353 89.0489 18.8246L88.4153 19.9567C88.2703 20.2112 88.3593 20.5395 88.6132 20.6862L89.6847 21.3074L89.6857 21.3057C89.6931 21.3111 89.7007 21.3155 89.7081 21.3194C91.6678 22.4898 93.7792 22.9763 95.7249 22.9075C99.1433 22.7879 101.709 21.1039 101.586 17.5963L101.584 17.5379C101.483 14.6495 98.8812 13.6787 96.6464 13.0197C94.916 12.4908 93.3992 12.1307 93.3677 11.2472L93.3659 11.1875C93.3439 10.5697 93.8862 10.0776 94.9779 10.0388C95.9193 10.0062 97.1415 10.3467 98.431 10.9205C98.7307 11.0581 98.9389 11.1095 99.2633 11.0976C100.006 11.0712 100.621 10.6269 100.874 9.99082L101.375 8.94514C101.501 8.68042 101.388 8.3599 101.125 8.23282" fill="#171321"/>
<path d="M117.078 20.4439C117.345 20.2418 117.397 19.8577 117.194 19.5904L116.531 18.7179L116.526 18.7195C116.22 18.2653 115.706 17.9774 115.091 17.9774C114.62 17.9774 114.325 18.0945 114 18.3303C113.086 19.0092 112.054 19.3929 110.815 19.3929C108.811 19.3929 107.395 18.3303 106.952 16.296H115.829C117.008 16.296 117.921 15.4411 117.921 14.1434C117.921 10.8698 115.593 6.5354 110.314 6.5354C105.712 6.5354 102.5 10.2507 102.5 14.7626V14.8215C102.5 19.6575 106.009 22.9911 110.757 22.9911C112.875 22.9911 114.568 22.3636 115.905 21.3433L117.078 20.444M106.894 13.4949C107.249 11.4606 108.457 10.1325 110.315 10.1325C112.202 10.1325 113.382 11.4891 113.648 13.4949H106.894" fill="#171321"/>
<path d="M26.9815 22.2042C26.9815 22.5397 26.7074 22.8138 26.371 22.8138H24.6624V22.8097C23.46 22.7683 22.5 21.7851 22.5 20.5728V1.54319C22.5 1.20731 22.7741 0.933105 23.1088 0.933105H24.8202V0.936585C26.0214 0.978945 26.9826 1.96211 26.9826 3.17387V22.2047L26.9815 22.2042Z" fill="#171321"/>
<path d="M30.5367 27.915C32.3954 28.6526 33.9793 29.0058 36.0735 29.0058C39.14 29.0058 41.1663 28.3572 42.642 26.8832C43.968 25.556 44.6465 23.492 44.6465 20.6605V8.87648V8.86208V7.24124C44.6465 6.89984 44.367 6.62012 44.0265 6.62012H42.3996C41.1644 6.62384 40.1642 7.62524 40.1642 8.83208V8.86196L40.2234 15.5004V15.559C40.2234 17.7115 38.7873 19.2158 36.6042 19.2158C34.4214 19.2158 33.0151 17.7408 33.0151 15.559V15.5004H33.0101V8.88956C33.0101 7.63472 31.9961 6.62024 30.7429 6.62024C30.7379 6.62024 30.7353 6.62216 30.7307 6.62216V6.62012L29.1445 6.63224C28.8093 6.63224 28.5342 6.90668 28.5342 7.2428L28.5373 15.8036C28.6517 20.3404 31.6849 22.9316 35.3077 22.9316C37.6963 22.9316 38.8963 21.9588 40.2233 20.366V21.1328C40.2233 23.9635 39.0221 25.4379 35.9553 25.4379C34.2753 25.4379 33.1325 25.0843 31.8345 24.4941C31.6279 24.4059 31.3928 24.3474 31.0982 24.3474C30.3397 24.3474 29.6839 24.8186 29.4086 25.481L28.9454 26.6108C28.8183 26.9214 28.9671 27.2787 29.2783 27.4064L30.5367 27.9154" fill="#171321"/>
<path d="M19.4843 6.72123L17.4632 0.991347C17.4187 0.866427 17.3323 0.860187 17.2719 0.978387L16.3199 2.81967C14.8562 2.08599 13.1651 1.69359 10.8863 1.69359C5.47914 1.69359 1.38474 5.43639 0.619141 10.2964C4.51674 5.02479 10.9247 5.70879 10.9247 5.70879L10.9185 5.72019C12.3305 5.74575 13.399 6.06939 14.3569 6.61527L13.3666 8.53311C13.3049 8.65155 13.3604 8.71767 13.4888 8.68119L19.3311 7.01619C19.4591 6.97995 19.5273 6.84699 19.4831 6.72207" fill="#74717A"/>
<path d="M0.973679 10.2222C0.973679 10.2222 0.596759 10.3801 0.566519 10.9482C0.469679 12.0038 0.507119 12.4611 0.507119 12.4611C0.507119 18.2223 5.19432 22.9095 10.9555 22.9095C16.7153 22.9095 21.4039 18.2223 21.4039 12.4611C21.4039 11.3071 20.4676 10.3718 19.3134 10.3718C19.3001 10.3718 19.287 10.3735 19.273 10.3735H12.1294C10.9403 10.3735 9.9762 11.3383 9.9762 12.5273C9.9762 13.7162 10.9398 14.6801 12.1294 14.6801H16.8154C15.9179 17.0448 13.6302 18.7307 10.9549 18.7307C7.49748 18.7307 4.68612 15.9183 4.68612 12.4607C4.68612 12.4607 4.55244 11.2292 5.27544 9.40018C5.63088 8.45854 4.54428 8.68018 4.54428 8.68018C2.34024 9.15538 0.973439 10.2228 0.973439 10.2228M1.72164 17.22L1.72224 17.2225C1.725 17.2325 1.72752 17.2423 1.73124 17.2524C1.72752 17.2417 1.72476 17.2315 1.72164 17.22Z" fill="#171321"/>
<path d="M120.5 8.0323C120.5 8.81602 119.869 9.43798 119.068 9.43798C118.268 9.43798 117.629 8.81602 117.629 8.0323C117.629 7.24858 118.268 6.6355 119.077 6.6355C119.869 6.6355 120.5 7.24858 120.5 8.0323M117.988 8.0323C117.988 8.65462 118.456 9.14806 119.077 9.14806C119.682 9.1561 120.142 8.65462 120.142 8.04022C120.142 7.4191 119.682 6.91666 119.061 6.91666C118.456 6.91678 117.988 7.41922 117.988 8.0323M118.848 8.7559H118.524V7.35922C118.652 7.3423 118.831 7.31626 119.061 7.31626C119.325 7.31626 119.445 7.35922 119.538 7.42762C119.623 7.4875 119.682 7.58938 119.682 7.72546C119.682 7.89586 119.555 8.0065 119.392 8.0575V8.07502C119.529 8.11738 119.597 8.2279 119.64 8.4151C119.682 8.62786 119.716 8.70514 119.742 8.7559H119.401C119.359 8.70514 119.333 8.58586 119.291 8.4151C119.265 8.27026 119.18 8.20234 119.001 8.20234H118.848V8.7559H118.848ZM118.857 7.97218H119.009C119.188 7.97218 119.333 7.91242 119.333 7.76782C119.333 7.64038 119.24 7.55506 119.035 7.55506C118.95 7.55506 118.89 7.56382 118.857 7.57198V7.97218Z" fill="#171321"/>
</g>
<defs>
<clipPath id="clip0_109_4751">
<rect width="120" height="28.2132" fill="white" transform="translate(0.5 0.893555)"/>
</clipPath>
</defs>
</svg>
